{
  "type": "main",
  "title": "Story 1",
  "author": "Full Name",
  "title-image": "/opa/static/images/black-and-white-perspective-railroad-285286.jpg",
  "title-image-caption": "Photo by Nikolai Ulltang from Pexels",
  "article-content": [
    "Lorem ipsum dolor sit amet, consectetur adipiscing elit. Nunc tristique mattis elementum. Fusce placerat tellus ut felis dictum, posuere ornare leo aliquam. Fusce porttitor sit amet eros quis tempus. Etiam aliquet tortor id arcu volutpat, id sollicitudin felis suscipit. Vestibulum id blandit mi, non fringilla enim. Duis dapibus justo egestas tortor egestas, eget pellentesque erat suscipit. Praesent erat ante, efficitur et accumsan et, vehicula quis ante. Vivamus dapibus enim enim, sit amet efficitur diam lacinia quis.",
    "Praesent posuere tortor et lectus interdum imperdiet. Mauris at dolor id nibh aliquet tempor. Duis euismod, sapien ac convallis efficitur, magna nibh aliquet tellus, a scelerisque tortor augue dignissim erat. Aliquam diam magna, interdum gravida ante sagittis, tincidunt ornare nibh. Interdum et malesuada fames ac ante ipsum primis in faucibus. Phasellus consequat in lacus vel malesuada. Nullam vestibulum blandit blandit. Cras dapibus rutrum lorem ac aliquam. Sed ultricies enim pellentesque felis elementum aliquam. Phasellus tristique iaculis mauris.",
    "Pellentesque tempor urna rhoncus, volutpat odio hendrerit, pretium tellus. Mauris ultricies rutrum nulla sit amet luctus. Suspendisse finibus bibendum elit, finibus tempor felis vestibulum ut. Cras quis leo gravida, molestie nisl sed, molestie eros. Sed magna metus, aliquet et tellus vitae, tincidunt pharetra lacus. Cras et egestas metus, ut gravida sem. Duis auctor, tortor vel euismod malesuada, tortor sem imperdiet nisl, a cursus quam purus sit amet nunc. Quisque condimentum augue ut efficitur iaculis. Etiam laoreet varius turpis, vitae tempus nisi euismod id. Sed viverra ante neque, a convallis libero vehicula vel. Sed tincidunt diam quis massa finibus placerat. Donec mattis accumsan quam vitae interdum. Praesent eros lorem, euismod quis mi eget, egestas tincidunt ligula. Aenean vitae urna a eros tincidunt tincidunt. ",
    {
      "type": "image",
      "src": "/opa/static/images/black-and-white-perspective-railroad-285286.jpg",
      "overlay-caption": "Photo by Nikolai Ulltang from Pexels"
    },
    "Curabitur porta erat hendrerit nunc tempus volutpat. Vestibulum consectetur sed arcu ut tempus. Nulla sit amet mauris sem. Praesent accumsan vitae nibh vel suscipit. Donec porttitor risus justo, vitae porttitor orci lobortis nec. Lorem ipsum dolor sit amet, consectetur adipiscing elit. Donec molestie mauris vitae eros pulvinar, id congue felis cursus. Sed non nunc iaculis tortor rhoncus interdum. Etiam eu urna pulvinar, mattis nisi dictum, elementum nunc. Fusce ut malesuada risus. Nullam ut maximus felis. Sed non velit semper erat commodo hendrerit.",
    "Donec accumsan, diam vitae ultrices pharetra, mauris ligula luctus lorem, vel posuere est dui vel velit. Aliquam aliquam efficitur mollis. Aliquam at facilisis dolor. Cras risus est, porttitor sed eleifend non, blandit non nisl. Morbi feugiat sodales laoreet. Nam sit amet purus nibh. Sed et efficitur felis. Quisque posuere metus ac turpis elementum, a faucibus eros auctor. Nullam vestibulum luctus vehicula. Nulla sit amet tortor in odio imperdiet posuere egestas vel arcu. Cras vehicula finibus metus eget hendrerit. Integer quis leo elit. Fusce in pretium quam, non vestibulum nisi. Ut odio arcu, cursus id imperdiet ac, tincidunt id magna. Cras pulvinar, quam sed euismod sagittis, neque nunc facilisis erat, et varius turpis ante sed arcu."
  ]
}